18_06_2020/ex_3/simulation/qsim/ex_3.msim.vcd
$comment
	File created using the following command:
		vcd file ex_3.msim.vcd -direction
$end
$date
	Thu Jun 18 15:31:45 2020
$end
$version
	ModelSim Version 10.5b
$end
$timescale
	1ps
$end

$scope module ex_3_vhd_vec_tst $end
$var wire 1 ! clk $end
$var wire 1 " reset $end
$var wire 1 # saida $end
$var wire 1 $ seq $end

$scope module i1 $end
$var wire 1 % gnd $end
$var wire 1 & vcc $end
$var wire 1 ' unknown $end
$var wire 1 ( devoe $end
$var wire 1 ) devclrn $end
$var wire 1 * devpor $end
$var wire 1 + ww_devoe $end
$var wire 1 , ww_devclrn $end
$var wire 1 - ww_devpor $end
$var wire 1 . ww_clk $end
$var wire 1 / ww_reset $end
$var wire 1 0 ww_seq $end
$var wire 1 1 ww_saida $end
$var wire 1 2 \~QUARTUS_CREATED_GND~I_combout\ $end
$var wire 1 3 \clk~input_o\ $end
$var wire 1 4 \reset~input_o\ $end
$var wire 1 5 \ps~0_combout\ $end
$var wire 1 6 \ps~q\ $end
$var wire 1 7 \seq~input_o\ $end
$var wire 1 8 \saida~0_combout\ $end
$var wire 1 9 \ALT_INV_reset~input_o\ $end
$var wire 1 : \ALT_INV_seq~input_o\ $end
$var wire 1 ; \ALT_INV_saida~0_combout\ $end
$var wire 1 < \ALT_INV_ps~q\ $end
$upscope $end
$upscope $end
$enddefinitions $end
#0
$dumpvars
0!
0"
0#
0$
0%
1&
x'
1(
1)
1*
1+
1,
1-
0.
0/
00
01
x2
03
04
15
06
07
18
19
1:
0;
1<
$end
#10000
1$
10
17
0:
#25000
1!
1.
13
16
0<
05
#30000
0$
00
07
1:
08
1;
11
1#
#40000
1$
10
17
0:
18
0;
01
0#
#50000
0$
0!
00
0.
03
07
1:
08
1;
11
1#
#75000
1!
1.
13
06
1<
15
18
0;
01
0#
#90000
1$
10
17
0:
#100000
0$
0!
00
0.
03
07
1:
#110000
1$
10
17
0:
#120000
0$
00
07
1:
#125000
1!
1.
13
16
0<
05
08
1;
11
1#
#130000
1$
10
17
0:
18
0;
01
0#
#140000
0$
00
07
1:
08
1;
11
1#
#150000
0!
0.
03
#175000
1!
1.
13
06
1<
15
18
0;
01
0#
#180000
1$
10
17
0:
#200000
0$
0!
00
0.
03
07
1:
#225000
1!
1.
13
16
0<
05
08
1;
11
1#
#230000
1$
10
17
0:
18
0;
01
0#
#240000
0$
00
07
1:
08
1;
11
1#
#250000
0!
0.
03
#275000
1!
1.
13
06
1<
15
18
0;
01
0#
#290000
1$
10
17
0:
#300000
0$
0!
00
0.
03
07
1:
#310000
1$
10
17
0:
#325000
1!
1.
13
16
0<
05
#340000
0$
00
07
1:
08
1;
11
1#
#350000
0!
0.
03
#375000
1!
1.
13
06
1<
15
18
0;
01
0#
#380000
1$
10
17
0:
#400000
0$
0!
00
0.
03
07
1:
#420000
1$
10
17
0:
#425000
1!
1.
13
16
0<
05
#440000
0$
00
07
1:
08
1;
11
1#
#450000
1$
0!
10
0.
03
17
0:
18
0;
01
0#
#475000
1!
1.
13
06
1<
15
#490000
0$
00
07
1:
#500000
0!
0.
03
#525000
1!
1.
13
16
0<
05
08
1;
11
1#
#530000
1$
10
17
0:
18
0;
01
0#
#550000
0$
0!
00
0.
03
07
1:
08
1;
11
1#
#560000
1$
10
17
0:
18
0;
01
0#
#570000
0$
00
07
1:
08
1;
11
1#
#575000
1!
1.
13
06
1<
15
18
0;
01
0#
#600000
0!
1$
0.
10
17
03
0:
#610000
0$
00
07
1:
#620000
1$
10
17
0:
#625000
1!
1.
13
16
0<
05
#640000
0$
00
07
1:
08
1;
11
1#
#650000
1$
0!
10
0.
03
17
0:
18
0;
01
0#
#660000
0$
00
07
1:
08
1;
11
1#
#675000
1!
1.
13
06
1<
15
18
0;
01
0#
#700000
0!
0.
03
#720000
1$
10
17
0:
#725000
1!
1.
13
16
0<
05
#730000
0$
00
07
1:
08
1;
11
1#
#740000
1$
10
17
0:
18
0;
01
0#
#750000
0$
0!
00
0.
03
07
1:
08
1;
11
1#
#760000
1$
10
17
0:
18
0;
01
0#
#775000
1!
1.
13
06
1<
15
#790000
0$
00
07
1:
#800000
1$
0!
10
0.
03
17
0:
#820000
0$
00
07
1:
#825000
1!
1.
13
16
0<
05
08
1;
11
1#
#850000
0!
1$
0.
10
17
03
0:
18
0;
01
0#
#875000
1!
1.
13
06
1<
15
#900000
0!
0.
03
#925000
1!
1.
13
16
0<
05
#940000
0$
00
07
1:
08
1;
11
1#
#950000
1$
0!
10
0.
03
17
0:
18
0;
01
0#
#960000
0$
00
07
1:
08
1;
11
1#
#975000
1!
1.
13
06
1<
15
18
0;
01
0#
#980000
1$
10
17
0:
