12_06_2020/ex_2/simulation/qsim/ex_2.msim.vcd
$comment
	File created using the following command:
		vcd file ex_2.msim.vcd -direction
$end
$date
	Fri Jun 12 15:11:19 2020
$end
$version
	ModelSim Version 10.5b
$end
$timescale
	1ps
$end

$scope module ex_2_vhd_vec_tst $end
$var wire 1 ! clk $end
$var wire 1 " conta $end
$var wire 1 # Moore_tick [1] $end
$var wire 1 $ Moore_tick [0] $end
$var wire 1 % reset $end

$scope module i1 $end
$var wire 1 & gnd $end
$var wire 1 ' vcc $end
$var wire 1 ( unknown $end
$var wire 1 ) devoe $end
$var wire 1 * devclrn $end
$var wire 1 + devpor $end
$var wire 1 , ww_devoe $end
$var wire 1 - ww_devclrn $end
$var wire 1 . ww_devpor $end
$var wire 1 / ww_clk $end
$var wire 1 0 ww_reset $end
$var wire 1 1 ww_conta $end
$var wire 1 2 ww_Moore_tick [1] $end
$var wire 1 3 ww_Moore_tick [0] $end
$var wire 1 4 \~QUARTUS_CREATED_GND~I_combout\ $end
$var wire 1 5 \conta~input_o\ $end
$var wire 1 6 \clk~input_o\ $end
$var wire 1 7 \present_state~feeder_combout\ $end
$var wire 1 8 \reset~input_o\ $end
$var wire 1 9 \present_state~q\ $end
$var wire 1 : \Moore_tick~0_combout\ $end
$var wire 1 ; \ALT_INV_reset~input_o\ $end
$var wire 1 < \ALT_INV_conta~input_o\ $end
$var wire 1 = \ALT_INV_Moore_tick~0_combout\ $end
$var wire 1 > \ALT_INV_present_state~q\ $end
$upscope $end
$upscope $end
$enddefinitions $end
#0
$dumpvars
0!
1"
0%
0&
1'
x(
1)
1*
1+
1,
1-
1.
0/
00
11
x4
15
06
17
08
09
1:
1;
0<
0=
1>
02
03
0#
0$
$end
#500
1!
0"
1/
01
05
16
1<
19
0:
0>
1=
1:
07
0=
17
12
1#
02
0#
#1000
0!
1"
0/
11
15
06
0<
0:
1=
07
12
1#
#1500
1!
1/
16
09
1>
1:
0=
17
02
0#
#2000
0!
0/
06
#2500
1!
1/
16
19
0>
0:
1=
07
12
1#
#3000
0!
0"
0/
01
05
06
1<
1:
0=
17
02
0#
#3500
1!
1/
16
#4000
0!
1"
0/
11
15
06
0<
0:
1=
07
12
1#
#4500
1!
1/
16
09
1>
1:
0=
17
02
0#
#5000
0!
0/
06
#5500
1!
1/
16
19
0>
0:
1=
07
12
1#
#6000
0!
0"
0/
01
05
06
1<
1:
0=
17
02
0#
#6500
1!
1"
1/
11
15
16
0<
0:
1=
07
12
1#
#7000
0!
0/
06
#7500
1!
0"
1/
01
05
16
1<
09
1:
1>
0=
0:
17
1=
07
02
0#
12
1#
#8000
0!
1"
0/
11
15
06
0<
1:
0=
17
02
0#
#8500
1!
0"
1/
01
05
16
1<
19
0:
0>
1=
1:
07
0=
17
12
1#
02
0#
#9000
0!
0/
06
#9500
1!
1/
16
