04_06_2020/ex_3/simulation/qsim/ex_3.msim.vcd
$comment
	File created using the following command:
		vcd file ex_3.msim.vcd -direction
$end
$date
	Thu Jun 04 15:48:40 2020
$end
$version
	ModelSim Version 10.5b
$end
$timescale
	1ps
$end

$scope module ex_3_vhd_vec_tst $end
$var wire 1 ! luzes $end
$var wire 1 " portas [2] $end
$var wire 1 # portas [1] $end
$var wire 1 $ portas [0] $end

$scope module i1 $end
$var wire 1 % gnd $end
$var wire 1 & vcc $end
$var wire 1 ' unknown $end
$var wire 1 ( devoe $end
$var wire 1 ) devclrn $end
$var wire 1 * devpor $end
$var wire 1 + ww_devoe $end
$var wire 1 , ww_devclrn $end
$var wire 1 - ww_devpor $end
$var wire 1 . ww_portas [2] $end
$var wire 1 / ww_portas [1] $end
$var wire 1 0 ww_portas [0] $end
$var wire 1 1 ww_luzes $end
$var wire 1 2 \~QUARTUS_CREATED_GND~I_combout\ $end
$var wire 1 3 \portas[1]~input_o\ $end
$var wire 1 4 \portas[0]~input_o\ $end
$var wire 1 5 \portas[2]~input_o\ $end
$var wire 1 6 \luzes~0_combout\ $end
$var wire 1 7 \ALT_INV_portas[2]~input_o\ $end
$var wire 1 8 \ALT_INV_portas[1]~input_o\ $end
$var wire 1 9 \ALT_INV_portas[0]~input_o\ $end
$upscope $end
$upscope $end
$enddefinitions $end
#0
$dumpvars
1!
0%
1&
x'
1(
1)
1*
1+
1,
1-
11
x2
03
14
05
16
17
18
09
0"
0#
1$
0.
0/
10
$end
#1000
0$
00
04
19
06
01
0!
#3000
1$
1"
10
1.
15
14
09
07
16
11
1!
#5000
0"
1#
1/
0.
05
13
08
17
#6000
0#
0$
00
0/
03
04
19
18
06
01
0!
#9000
1$
10
14
09
16
11
1!
#10000
0$
1#
1"
00
1/
1.
15
13
04
19
08
07
#11000
1$
0#
10
0/
03
14
09
18
#12000
0$
00
04
19
#13000
1$
10
14
09
#14000
0$
1#
0"
00
1/
0.
05
13
04
19
08
17
#15000
1"
1.
15
07
#16000
0"
1$
10
0.
05
14
09
17
#18000
1"
0$
00
1.
15
04
19
07
#19000
1$
0#
10
0/
03
14
09
18
