12_06_2020/ex_3/simulation/qsim/ex_3.msim.vcd
$comment
	File created using the following command:
		vcd file ex_3.msim.vcd -direction
$end
$date
	Fri Jun 12 15:35:34 2020
$end
$version
	ModelSim Version 10.5b
$end
$timescale
	1ps
$end

$scope module ex_3_vhd_vec_tst $end
$var wire 1 ! clk $end
$var wire 1 " descer $end
$var wire 1 # reset $end
$var wire 1 $ saida $end
$var wire 1 % subir $end

$scope module i1 $end
$var wire 1 & gnd $end
$var wire 1 ' vcc $end
$var wire 1 ( unknown $end
$var wire 1 ) devoe $end
$var wire 1 * devclrn $end
$var wire 1 + devpor $end
$var wire 1 , ww_devoe $end
$var wire 1 - ww_devclrn $end
$var wire 1 . ww_devpor $end
$var wire 1 / ww_clk $end
$var wire 1 0 ww_reset $end
$var wire 1 1 ww_subir $end
$var wire 1 2 ww_descer $end
$var wire 1 3 ww_saida $end
$var wire 1 4 \~QUARTUS_CREATED_GND~I_combout\ $end
$var wire 1 5 \subir~input_o\ $end
$var wire 1 6 \descer~input_o\ $end
$var wire 1 7 \clk~input_o\ $end
$var wire 1 8 \present_state~feeder_combout\ $end
$var wire 1 9 \reset~input_o\ $end
$var wire 1 : \present_state~q\ $end
$var wire 1 ; \saida~0_combout\ $end
$var wire 1 < \ALT_INV_reset~input_o\ $end
$var wire 1 = \ALT_INV_subir~input_o\ $end
$var wire 1 > \ALT_INV_descer~input_o\ $end
$var wire 1 ? \ALT_INV_saida~0_combout\ $end
$var wire 1 @ \ALT_INV_present_state~q\ $end
$upscope $end
$upscope $end
$enddefinitions $end
#0
$dumpvars
0!
0"
0#
0$
0%
0&
1'
x(
1)
1*
1+
1,
1-
1.
0/
00
01
02
03
x4
05
06
07
08
09
0:
0;
1<
1=
1>
1?
1@
$end
#10000
1%
11
15
0=
1;
0?
18
13
1$
#15000
1!
1/
17
1:
0@
#30000
0!
0/
07
#40000
0%
01
05
1=
#45000
1!
1/
17
#60000
0!
0/
07
#70000
1"
12
16
0>
0;
1?
08
03
0$
#75000
1!
1/
17
0:
1@
#90000
0!
0/
07
#105000
1!
1/
17
#120000
0!
0"
0/
02
06
07
1>
#135000
1!
1/
17
#150000
0!
0/
07
#160000
1%
11
15
0=
1;
0?
18
13
1$
#165000
1!
1/
17
1:
0@
#180000
0!
0/
07
#195000
1!
1/
17
#210000
0!
0/
07
#225000
1!
1/
17
#230000
0%
01
05
1=
#240000
0!
1"
0/
12
16
07
0>
0;
1?
08
03
0$
#255000
1!
1/
17
0:
1@
#270000
0!
0/
07
#285000
1!
1/
17
#300000
0!
0/
07
#315000
1!
1/
17
#320000
0"
02
06
1>
#330000
0!
1%
0/
11
15
07
0=
1;
0?
18
13
1$
#345000
1!
1/
17
1:
0@
#360000
0!
0/
07
#375000
1!
1/
17
#390000
0!
0/
07
#405000
1!
1/
17
#420000
0!
0/
07
#435000
1!
1/
17
#450000
0!
0/
07
#465000
1!
1/
17
#480000
0!
0%
0/
01
05
07
1=
#495000
1!
1/
17
#500000
1"
12
16
0>
0;
1?
08
03
0$
#510000
0!
0/
07
#525000
1!
1/
17
0:
1@
#540000
0!
0/
07
#555000
1!
1/
17
#570000
0!
0/
07
#585000
1!
1/
17
#600000
0!
0/
07
#615000
1!
1/
17
#630000
0!
0/
07
#645000
1!
1/
17
#650000
0"
02
06
1>
#660000
0!
0/
07
#670000
1%
11
15
0=
1;
0?
18
13
1$
#675000
1!
1/
17
1:
0@
#690000
0!
0/
07
#705000
1!
1/
17
#720000
0!
0/
07
#735000
1!
1/
17
#750000
0!
0/
07
#765000
1!
1/
17
#780000
0!
0/
07
#795000
1!
1/
17
#810000
0!
0/
07
#820000
0%
01
05
1=
#825000
1!
1/
17
#840000
0!
0/
07
#855000
1!
1/
17
#870000
0!
0/
07
#885000
1!
1/
17
#900000
0!
0/
07
#915000
1!
1/
17
#930000
0!
0/
07
#945000
1!
1/
17
#960000
0!
0/
07
#975000
1!
1/
17
#990000
0!
0/
07
