19_06_2020/ex1/simulation/qsim/ex1.msim.vcd
$comment
	File created using the following command:
		vcd file ex1.msim.vcd -direction
$end
$date
	Fri Jun 19 14:55:21 2020
$end
$version
	ModelSim Version 10.5b
$end
$timescale
	1ps
$end

$scope module ex1_vhd_vec_tst $end
$var wire 1 ! clk $end
$var wire 1 " entrada $end
$var wire 1 # reset $end
$var wire 1 $ saida $end
$var wire 1 % verde $end
$var wire 1 & vermelho $end

$scope module i1 $end
$var wire 1 ' gnd $end
$var wire 1 ( vcc $end
$var wire 1 ) unknown $end
$var wire 1 * devoe $end
$var wire 1 + devclrn $end
$var wire 1 , devpor $end
$var wire 1 - ww_devoe $end
$var wire 1 . ww_devclrn $end
$var wire 1 / ww_devpor $end
$var wire 1 0 ww_clk $end
$var wire 1 1 ww_reset $end
$var wire 1 2 ww_entrada $end
$var wire 1 3 ww_saida $end
$var wire 1 4 ww_verde $end
$var wire 1 5 ww_vermelho $end
$var wire 1 6 \clk~input_o\ $end
$var wire 1 7 \reset~input_o\ $end
$var wire 1 8 \entrada~input_o\ $end
$var wire 1 9 \saida~input_o\ $end
$var wire 1 : \~QUARTUS_CREATED_GND~I_combout\ $end
$upscope $end
$upscope $end
$enddefinitions $end
#0
$dumpvars
0!
1"
0#
0$
1%
0&
0'
1(
x)
1*
1+
1,
1-
1.
1/
00
01
12
03
14
05
06
07
18
09
x:
$end
#1000
1!
10
16
#2000
0!
00
06
#3000
1!
10
16
#4000
0!
00
06
#5000
1!
10
16
#6000
0!
00
06
#7000
1!
10
16
#8000
0!
00
06
#9000
1!
10
16
#10000
0!
00
06
#11000
1!
10
16
#12000
0!
00
06
#13000
1!
10
16
#14000
0!
00
06
#15000
1!
10
16
#16000
0!
00
06
#17000
1!
10
16
#18000
0!
00
06
#19000
1!
10
16
