29_05_2020/ex2/simulation/qsim/ex2.msim.vcd
$comment
	File created using the following command:
		vcd file ex2.msim.vcd -direction
$end
$date
	Fri May 29 15:42:57 2020
$end
$version
	ModelSim Version 10.5b
$end
$timescale
	1ps
$end

$scope module ex2_vhd_vec_tst $end
$var wire 1 ! Clk $end
$var wire 1 " max [2] $end
$var wire 1 # max [1] $end
$var wire 1 $ max [0] $end
$var wire 1 % outMoore [2] $end
$var wire 1 & outMoore [1] $end
$var wire 1 ' outMoore [0] $end

$scope module i1 $end
$var wire 1 ( gnd $end
$var wire 1 ) vcc $end
$var wire 1 * unknown $end
$var wire 1 + devoe $end
$var wire 1 , devclrn $end
$var wire 1 - devpor $end
$var wire 1 . ww_devoe $end
$var wire 1 / ww_devclrn $end
$var wire 1 0 ww_devpor $end
$var wire 1 1 ww_Clk $end
$var wire 1 2 ww_max [2] $end
$var wire 1 3 ww_max [1] $end
$var wire 1 4 ww_max [0] $end
$var wire 1 5 ww_outMoore [2] $end
$var wire 1 6 ww_outMoore [1] $end
$var wire 1 7 ww_outMoore [0] $end
$var wire 1 8 \~QUARTUS_CREATED_GND~I_combout\ $end
$var wire 1 9 \Clk~input_o\ $end
$var wire 1 : \Clk~inputCLKENA0_outclk\ $end
$var wire 1 ; \max[2]~input_o\ $end
$var wire 1 < \max[0]~input_o\ $end
$var wire 1 = \max[1]~input_o\ $end
$var wire 1 > \Selector2~0_combout\ $end
$var wire 1 ? \PresentState.c~q\ $end
$var wire 1 @ \Selector0~0_combout\ $end
$var wire 1 A \PresentState.a~q\ $end
$var wire 1 B \Selector1~0_combout\ $end
$var wire 1 C \PresentState.b~q\ $end
$var wire 1 D \ALT_INV_PresentState.b~q\ $end
$var wire 1 E \ALT_INV_PresentState.a~q\ $end
$var wire 1 F \ALT_INV_PresentState.c~q\ $end
$var wire 1 G \ALT_INV_max[1]~input_o\ $end
$var wire 1 H \ALT_INV_max[0]~input_o\ $end
$var wire 1 I \ALT_INV_max[2]~input_o\ $end
$upscope $end
$upscope $end
$enddefinitions $end
#0
$dumpvars
0!
0(
1)
x*
1+
1,
1-
1.
1/
10
01
x8
09
0:
1;
0<
1=
0>
0?
1@
0A
1B
0C
1D
1E
1F
0G
1H
0I
1"
1#
0$
12
13
04
15
06
17
1%
0&
1'
$end
#500
1!
11
19
1:
1A
1C
0D
0E
1>
0B
16
1&
#1000
0!
0"
01
02
0;
09
0:
1I
#1500
1!
11
19
1:
1?
0C
1D
0F
0@
0>
06
05
0&
0%
#2000
0!
1"
0#
01
03
12
1;
0=
09
0:
1G
0I
#2500
1!
11
19
1:
0?
0A
1E
1F
1@
1B
15
1%
#3000
0!
1#
01
13
1=
09
0:
0G
#3500
1!
11
19
1:
1A
1C
0D
0E
1>
0B
16
1&
#4000
0!
0#
0"
01
03
02
0;
0=
09
0:
1G
1I
#4500
1!
11
19
1:
1?
0C
1D
0F
0@
0>
06
05
0&
0%
#5000
0!
1"
01
12
1;
09
0:
0I
#5500
1!
11
19
1:
0?
0A
1E
1F
1@
1B
15
1%
#6000
0!
01
09
0:
#6500
1!
11
19
1:
1A
1C
0D
0E
1>
0B
16
1&
#7000
0!
01
09
0:
#7500
1!
11
19
1:
1?
0C
1D
0F
0@
0>
06
05
0&
0%
#8000
0!
0"
1#
1$
01
14
13
02
0;
1=
1<
09
0:
0H
0G
1I
#8500
1!
11
19
1:
0?
0A
1E
1F
1@
1B
15
1%
#9000
0!
01
09
0:
#9500
1!
11
19
1:
1A
1C
0D
0E
1>
0B
16
1&
