18_06_2020/ex_1/simulation/qsim/ex_1.msim.vcd
$comment
	File created using the following command:
		vcd file ex_1.msim.vcd -direction
$end
$date
	Thu Jun 18 14:55:16 2020
$end
$version
	ModelSim Version 10.5b
$end
$timescale
	1ps
$end

$scope module ex_1_vhd_vec_tst $end
$var wire 1 ! clk $end
$var wire 1 " Mealy_tick $end
$var wire 1 # reset $end
$var wire 1 $ x $end

$scope module i1 $end
$var wire 1 % gnd $end
$var wire 1 & vcc $end
$var wire 1 ' unknown $end
$var wire 1 ( devoe $end
$var wire 1 ) devclrn $end
$var wire 1 * devpor $end
$var wire 1 + ww_devoe $end
$var wire 1 , ww_devclrn $end
$var wire 1 - ww_devpor $end
$var wire 1 . ww_clk $end
$var wire 1 / ww_reset $end
$var wire 1 0 ww_x $end
$var wire 1 1 ww_Mealy_tick $end
$var wire 1 2 \~QUARTUS_CREATED_GND~I_combout\ $end
$var wire 1 3 \clk~input_o\ $end
$var wire 1 4 \clk~inputCLKENA0_outclk\ $end
$var wire 1 5 \x~input_o\ $end
$var wire 1 6 \stateMealy_reg.a~0_combout\ $end
$var wire 1 7 \reset~input_o\ $end
$var wire 1 8 \stateMealy_reg.a~q\ $end
$var wire 1 9 \Selector1~0_combout\ $end
$var wire 1 : \stateMealy_reg.c~q\ $end
$var wire 1 ; \ALT_INV_stateMealy_reg.c~q\ $end
$var wire 1 < \ALT_INV_stateMealy_reg.a~q\ $end
$var wire 1 = \ALT_INV_x~input_o\ $end
$var wire 1 > \ALT_INV_reset~input_o\ $end
$upscope $end
$upscope $end
$enddefinitions $end
#0
$dumpvars
0!
0"
0#
0$
0%
1&
x'
1(
1)
1*
1+
1,
1-
0.
0/
00
01
x2
03
04
05
06
07
08
09
0:
1;
1<
1=
1>
$end
#250
1!
1.
13
14
#500
0!
0.
03
04
#750
1!
1.
13
14
#1000
0!
0.
03
04
#1250
1!
1.
13
14
#1500
0!
1$
0.
10
15
03
04
0=
16
#1750
1!
1.
13
14
18
0<
#2000
0!
0.
03
04
#2250
1!
1.
13
14
#2500
0!
0$
0.
00
05
03
04
1=
19
#2750
1!
1.
13
14
1:
0;
11
1"
#3000
0!
1$
0.
10
15
03
04
0=
06
09
#3250
1!
1.
13
14
08
0:
1;
1<
16
01
0"
#3500
0!
0$
0.
00
05
03
04
1=
06
#3750
1!
1.
13
14
#4000
0!
1$
0.
10
15
03
04
0=
16
#4250
1!
1.
13
14
18
0<
#4500
0!
0.
03
04
#4750
1!
1.
13
14
#5000
0!
0$
0.
00
05
03
04
1=
19
#5250
1!
1.
13
14
1:
0;
11
1"
#5500
0!
1$
0.
10
15
03
04
0=
06
09
#5750
1!
1.
13
14
08
0:
1;
1<
16
01
0"
#6000
0!
0.
03
04
#6250
1!
1.
13
14
18
0<
#6500
0!
0.
03
04
#6750
1!
1.
13
14
#7000
0!
0$
0.
00
05
03
04
1=
19
#7250
1!
1.
13
14
1:
0;
11
1"
#7500
0!
0.
03
04
#7750
1!
1.
13
14
#8000
0!
0.
03
04
#8250
1!
1.
13
14
#8500
0!
0.
03
04
#8750
1!
1.
13
14
#9000
0!
0.
03
04
#9250
1!
1.
13
14
#9500
0!
0.
03
04
#9750
1!
1.
13
14
