05_06_2020/ex_2/simulation/qsim/ex_2.msim.vcd
$comment
	File created using the following command:
		vcd file ex_2.msim.vcd -direction
$end
$date
	Fri Jun 05 15:21:34 2020
$end
$version
	ModelSim Version 10.5b
$end
$timescale
	1ps
$end

$scope module ex_2_vhd_vec_tst $end
$var wire 1 ! bit1 $end
$var wire 1 " bit2 $end
$var wire 1 # saida $end

$scope module i1 $end
$var wire 1 $ gnd $end
$var wire 1 % vcc $end
$var wire 1 & unknown $end
$var wire 1 ' devoe $end
$var wire 1 ( devclrn $end
$var wire 1 ) devpor $end
$var wire 1 * ww_devoe $end
$var wire 1 + ww_devclrn $end
$var wire 1 , ww_devpor $end
$var wire 1 - ww_bit1 $end
$var wire 1 . ww_bit2 $end
$var wire 1 / ww_saida $end
$var wire 1 0 \~QUARTUS_CREATED_GND~I_combout\ $end
$var wire 1 1 \bit2~input_o\ $end
$var wire 1 2 \bit1~input_o\ $end
$var wire 1 3 \saida~0_combout\ $end
$var wire 1 4 \ALT_INV_bit2~input_o\ $end
$var wire 1 5 \ALT_INV_bit1~input_o\ $end
$var wire 1 6 \ALT_INV_saida~0_combout\ $end
$upscope $end
$upscope $end
$enddefinitions $end
#0
$dumpvars
0!
0"
1#
0$
1%
x&
1'
1(
1)
1*
1+
1,
0-
0.
1/
x0
01
02
03
14
15
16
$end
#275
1"
1.
11
04
13
06
0/
0#
#581
0"
0.
01
14
03
16
1/
1#
#941
1"
1.
11
04
13
06
0/
0#
#984
1!
1-
12
05
03
16
1/
1#
#1247
0"
0.
01
14
13
06
0/
0#
#1607
1"
1.
11
04
03
16
1/
1#
#1864
0!
0-
02
15
13
06
0/
0#
#1913
0"
0.
01
14
03
16
1/
1#
#2000
1"
1.
11
04
13
06
0/
0#
#2018
1!
1-
12
05
03
16
1/
1#
#2198
0!
0-
02
15
13
06
0/
0#
#2307
0"
0.
01
14
03
16
1/
1#
#2518
1!
1-
12
05
13
06
0/
0#
#2640
1"
1.
11
04
03
16
1/
1#
#2698
0!
0-
02
15
13
06
0/
0#
#2973
0"
0.
01
14
03
16
1/
1#
#3000
1!
1-
12
05
13
06
0/
0#
#3127
0!
0-
02
15
03
16
1/
1#
#3277
1!
1-
12
05
13
06
0/
0#
#3306
1"
1.
11
04
03
16
1/
1#
#3460
0!
0-
02
15
13
06
0/
0#
#3610
1!
1-
12
05
03
16
1/
1#
#3639
0"
0.
01
14
13
06
0/
0#
#3793
0!
0-
02
15
03
16
1/
1#
#3943
1!
1-
12
05
13
06
0/
0#
#3972
1"
1.
11
04
03
16
1/
1#
#4070
0!
0-
02
15
13
06
0/
0#
#4229
0"
0.
01
14
03
16
1/
1#
#4400
1!
1-
12
05
13
06
0/
0#
#4570
0!
0-
02
15
03
16
1/
1#
#4900
1!
1-
12
05
13
06
0/
0#
#4919
1"
1.
11
04
03
16
1/
1#
#5000
0"
0!
0.
0-
02
01
14
15
#5061
1"
1.
11
04
13
06
0/
0#
#5089
1!
1-
12
05
03
16
1/
1#
#5274
0!
0-
02
15
13
06
0/
0#
#5451
0"
0.
01
14
03
16
1/
1#
#5589
1!
1-
12
05
13
06
0/
0#
#5774
0!
0-
02
15
03
16
1/
1#
#6000
1"
1.
11
04
13
06
0/
0#
#6257
1!
1-
12
05
03
16
1/
1#
#6271
0"
0.
01
14
13
06
0/
0#
#6482
0!
0-
02
15
03
16
1/
1#
#6757
1!
1-
12
05
13
06
0/
0#
#6911
1"
1.
11
04
03
16
1/
1#
#6982
0!
0-
02
15
13
06
0/
0#
#7000
0"
0.
01
14
03
16
1/
1#
#7076
1"
1.
11
04
13
06
0/
0#
#7241
0"
0.
01
14
03
16
1/
1#
#7377
1!
1-
12
05
13
06
0/
0#
#7576
1"
1.
11
04
03
16
1/
1#
#7741
0"
0.
01
14
13
06
0/
0#
#7757
0!
0-
02
15
03
16
1/
1#
#8465
1"
1.
11
04
13
06
0/
0#
#8521
1!
1-
12
05
03
16
1/
1#
#8775
0"
0.
01
14
13
06
0/
0#
#8971
0!
0-
02
15
03
16
1/
1#
#9000
1"
1.
11
04
13
06
0/
0#
#9157
0"
0.
01
14
03
16
1/
1#
#9327
1"
1.
11
04
13
06
0/
0#
#9490
0"
0.
01
14
03
16
1/
1#
#9506
1!
1-
12
05
13
06
0/
0#
#9660
1"
1.
11
04
03
16
1/
1#
#9823
0"
0.
01
14
13
06
0/
0#
#9856
0!
0-
02
15
03
16
1/
1#
#9993
1"
1.
11
04
13
06
0/
0#
