09_06_2020/ex_1/simulation/qsim/ex_1.msim.vcd
$comment
	File created using the following command:
		vcd file ex_1.msim.vcd -direction
$end
$date
	Fri Jun 12 15:00:25 2020
$end
$version
	ModelSim Version 10.5b
$end
$timescale
	1ps
$end

$scope module ex_1_vhd_vec_tst $end
$var wire 1 ! clk $end
$var wire 1 " Moore_tick [2] $end
$var wire 1 # Moore_tick [1] $end
$var wire 1 $ Moore_tick [0] $end
$var wire 1 % reset $end

$scope module i1 $end
$var wire 1 & gnd $end
$var wire 1 ' vcc $end
$var wire 1 ( unknown $end
$var wire 1 ) devoe $end
$var wire 1 * devclrn $end
$var wire 1 + devpor $end
$var wire 1 , ww_devoe $end
$var wire 1 - ww_devclrn $end
$var wire 1 . ww_devpor $end
$var wire 1 / ww_clk $end
$var wire 1 0 ww_reset $end
$var wire 1 1 ww_Moore_tick [2] $end
$var wire 1 2 ww_Moore_tick [1] $end
$var wire 1 3 ww_Moore_tick [0] $end
$var wire 1 4 \~QUARTUS_CREATED_GND~I_combout\ $end
$var wire 1 5 \clk~input_o\ $end
$var wire 1 6 \clk~inputCLKENA0_outclk\ $end
$var wire 1 7 \present_state.quatro~0_combout\ $end
$var wire 1 8 \reset~input_o\ $end
$var wire 1 9 \present_state.quatro~q\ $end
$var wire 1 : \present_state.seis~q\ $end
$var wire 1 ; \present_state.dois~0_combout\ $end
$var wire 1 < \present_state.dois~q\ $end
$var wire 1 = \present_state.quatro~DUPLICATE_q\ $end
$var wire 1 > \ALT_INV_present_state.dois~q\ $end
$var wire 1 ? \ALT_INV_present_state.seis~q\ $end
$var wire 1 @ \ALT_INV_reset~input_o\ $end
$upscope $end
$upscope $end
$enddefinitions $end
#0
$dumpvars
0!
0%
0&
1'
x(
1)
1*
1+
1,
1-
1.
0/
00
x4
05
06
17
08
09
0:
1;
0<
0=
1>
1?
1@
0"
1#
1$
01
12
13
$end
#500
1!
1/
15
16
19
1<
1=
0>
07
11
02
1"
0#
#1000
0!
0/
05
06
#1500
1!
1/
15
16
09
1:
0=
0?
0;
01
0"
#2000
0!
0/
05
06
#2500
1!
1/
15
16
0:
0<
1>
1?
1;
17
12
1#
#3000
0!
0/
05
06
#3500
1!
1/
15
16
19
1<
1=
0>
07
11
02
1"
0#
#4000
0!
0/
05
06
#4500
1!
1/
15
16
09
1:
0=
0?
0;
01
0"
#5000
0!
0/
05
06
#5500
1!
1/
15
16
0:
0<
1>
1?
1;
17
12
1#
#6000
0!
0/
05
06
#6500
1!
1/
15
16
19
1<
1=
0>
07
11
02
1"
0#
#7000
0!
0/
05
06
#7500
1!
1/
15
16
09
1:
0=
0?
0;
01
0"
#8000
0!
0/
05
06
#8500
1!
1/
15
16
0:
0<
1>
1?
1;
17
12
1#
#9000
0!
0/
05
06
#9500
1!
1/
15
16
19
1<
1=
0>
07
11
02
1"
0#
