22_05_2020/pokemon/simulation/qsim/pokemon.msim.vcd
$comment
	File created using the following command:
		vcd file pokemon.msim.vcd -direction
$end
$date
	Fri May 22 15:03:59 2020
$end
$version
	ModelSim Version 10.5b
$end
$timescale
	1ps
$end

$scope module pokemon_vhd_vec_tst $end
$var wire 1 ! jogadorA [1] $end
$var wire 1 " jogadorA [0] $end
$var wire 1 # jogadorB [1] $end
$var wire 1 $ jogadorB [0] $end
$var wire 1 % pk_tie $end
$var wire 1 & pk_winA $end
$var wire 1 ' pk_winB $end

$scope module i1 $end
$var wire 1 ( gnd $end
$var wire 1 ) vcc $end
$var wire 1 * unknown $end
$var wire 1 + devoe $end
$var wire 1 , devclrn $end
$var wire 1 - devpor $end
$var wire 1 . ww_devoe $end
$var wire 1 / ww_devclrn $end
$var wire 1 0 ww_devpor $end
$var wire 1 1 ww_jogadorA [1] $end
$var wire 1 2 ww_jogadorA [0] $end
$var wire 1 3 ww_jogadorB [1] $end
$var wire 1 4 ww_jogadorB [0] $end
$var wire 1 5 ww_pk_winA $end
$var wire 1 6 ww_pk_winB $end
$var wire 1 7 ww_pk_tie $end
$var wire 1 8 \~QUARTUS_CREATED_GND~I_combout\ $end
$var wire 1 9 \jogadorA[0]~input_o\ $end
$var wire 1 : \jogadorA[1]~input_o\ $end
$var wire 1 ; \jogadorB[0]~input_o\ $end
$var wire 1 < \jogadorB[1]~input_o\ $end
$var wire 1 = \LessThan0~0_combout\ $end
$var wire 1 > \comb~1_combout\ $end
$var wire 1 ? \pk_winA$latch~combout\ $end
$var wire 1 @ \comb~2_combout\ $end
$var wire 1 A \LessThan1~0_combout\ $end
$var wire 1 B \pk_winB$latch~combout\ $end
$var wire 1 C \comb~0_combout\ $end
$var wire 1 D \ALT_INV_jogadorB[0]~input_o\ $end
$var wire 1 E \ALT_INV_comb~0_combout\ $end
$var wire 1 F \ALT_INV_LessThan0~0_combout\ $end
$var wire 1 G \ALT_INV_comb~1_combout\ $end
$var wire 1 H \ALT_INV_comb~2_combout\ $end
$var wire 1 I \ALT_INV_LessThan1~0_combout\ $end
$var wire 1 J \ALT_INV_pk_winB$latch~combout\ $end
$var wire 1 K \ALT_INV_pk_winA$latch~combout\ $end
$var wire 1 L \ALT_INV_jogadorA[1]~input_o\ $end
$var wire 1 M \ALT_INV_jogadorB[1]~input_o\ $end
$var wire 1 N \ALT_INV_jogadorA[0]~input_o\ $end
$upscope $end
$upscope $end
$enddefinitions $end
#0
$dumpvars
0%
0&
1'
0(
1)
x*
1+
1,
1-
1.
1/
10
05
16
07
x8
09
1:
1;
1<
0=
1>
0?
0@
1A
1B
1C
0D
0E
1F
0G
1H
0I
0J
1K
0L
0M
1N
1!
0"
1#
1$
11
02
13
14
$end
#10000
0!
0#
0$
01
04
03
0<
0;
0:
1L
1D
1M
1@
0A
0C
1E
1I
0H
0B
1J
17
1%
06
0'
#20000
1!
1#
1$
11
14
13
1<
1;
1:
0L
0D
0M
0@
1A
1C
0E
0I
1H
1B
0J
07
0%
16
1'
#30000
0!
0#
0$
01
04
03
0<
0;
0:
1L
1D
1M
1@
0A
0C
1E
1I
0H
0B
1J
17
1%
06
0'
#40000
1!
1#
1$
11
14
13
1<
1;
1:
0L
0D
0M
0@
1A
1C
0E
0I
1H
1B
0J
07
0%
16
1'
#50000
0!
0#
0$
01
04
03
0<
0;
0:
1L
1D
1M
1@
0A
0C
1E
1I
0H
0B
1J
17
1%
06
0'
#60000
1!
1#
1$
11
14
13
1<
1;
1:
0L
0D
0M
0@
1A
1C
0E
0I
1H
1B
0J
07
0%
16
1'
#70000
0!
0#
0$
01
04
03
0<
0;
0:
1L
1D
1M
1@
0A
0C
1E
1I
0H
0B
1J
17
1%
06
0'
#80000
1!
1#
1$
11
14
13
1<
1;
1:
0L
0D
0M
0@
1A
1C
0E
0I
1H
1B
0J
07
0%
16
1'
#90000
0!
0#
0$
01
04
03
0<
0;
0:
1L
1D
1M
1@
0A
0C
1E
1I
0H
0B
1J
17
1%
06
0'
#100000
1!
1#
1$
11
14
13
1<
1;
1:
0L
0D
0M
0@
1A
1C
0E
0I
1H
1B
0J
07
0%
16
1'
#110000
0!
0#
0$
01
04
03
0<
0;
0:
1L
1D
1M
1@
0A
0C
1E
1I
0H
0B
1J
17
1%
06
0'
#120000
1!
1#
1$
11
14
13
1<
1;
1:
0L
0D
0M
0@
1A
1C
0E
0I
1H
1B
0J
07
0%
16
1'
#130000
0!
0#
0$
01
04
03
0<
0;
0:
1L
1D
1M
1@
0A
0C
1E
1I
0H
0B
1J
17
1%
06
0'
#140000
1!
1#
1$
11
14
13
1<
1;
1:
0L
0D
0M
0@
1A
1C
0E
0I
1H
1B
0J
07
0%
16
1'
#150000
0!
0#
0$
01
04
03
0<
0;
0:
1L
1D
1M
1@
0A
0C
1E
1I
0H
0B
1J
17
1%
06
0'
#160000
1!
1#
1$
11
14
13
1<
1;
1:
0L
0D
0M
0@
1A
1C
0E
0I
1H
1B
0J
07
0%
16
1'
#170000
0!
0#
0$
01
04
03
0<
0;
0:
1L
1D
1M
1@
0A
0C
1E
1I
0H
0B
1J
17
1%
06
0'
#180000
1!
1#
1$
11
14
13
1<
1;
1:
0L
0D
0M
0@
1A
1C
0E
0I
1H
1B
0J
07
0%
16
1'
#190000
0!
0#
0$
01
04
03
0<
0;
0:
1L
1D
1M
1@
0A
0C
1E
1I
0H
0B
1J
17
1%
06
0'
#200000
1!
1#
1$
11
14
13
1<
1;
1:
0L
0D
0M
0@
1A
1C
0E
0I
1H
1B
0J
07
0%
16
1'
#210000
0!
0#
0$
01
04
03
0<
0;
0:
1L
1D
1M
1@
0A
0C
1E
1I
0H
0B
1J
17
1%
06
0'
#220000
1!
1#
1$
11
14
13
1<
1;
1:
0L
0D
0M
0@
1A
1C
0E
0I
1H
1B
0J
07
0%
16
1'
#230000
0!
0#
0$
01
04
03
0<
0;
0:
1L
1D
1M
1@
0A
0C
1E
1I
0H
0B
1J
17
1%
06
0'
#240000
1!
1#
1$
11
14
13
1<
1;
1:
0L
0D
0M
0@
1A
1C
0E
0I
1H
1B
0J
07
0%
16
1'
#250000
0!
0#
0$
01
04
03
0<
0;
0:
1L
1D
1M
1@
0A
0C
1E
1I
0H
0B
1J
17
1%
06
0'
#260000
1!
1#
1$
11
14
13
1<
1;
1:
0L
0D
0M
0@
1A
1C
0E
0I
1H
1B
0J
07
0%
16
1'
#270000
0!
0#
0$
01
04
03
0<
0;
0:
1L
1D
1M
1@
0A
0C
1E
1I
0H
0B
1J
17
1%
06
0'
#280000
1!
1#
1$
11
14
13
1<
1;
1:
0L
0D
0M
0@
1A
1C
0E
0I
1H
1B
0J
07
0%
16
1'
#290000
0!
0#
0$
01
04
03
0<
0;
0:
1L
1D
1M
1@
0A
0C
1E
1I
0H
0B
1J
17
1%
06
0'
#300000
1!
1#
1$
11
14
13
1<
1;
1:
0L
0D
0M
0@
1A
1C
0E
0I
1H
1B
0J
07
0%
16
1'
#310000
0!
0#
0$
01
04
03
0<
0;
0:
1L
1D
1M
1@
0A
0C
1E
1I
0H
0B
1J
17
1%
06
0'
#320000
1!
1#
1$
11
14
13
1<
1;
1:
0L
0D
0M
0@
1A
1C
0E
0I
1H
1B
0J
07
0%
16
1'
#330000
0!
0#
0$
01
04
03
0<
0;
0:
1L
1D
1M
1@
0A
0C
1E
1I
0H
0B
1J
17
1%
06
0'
#340000
1!
1#
1$
11
14
13
1<
1;
1:
0L
0D
0M
0@
1A
1C
0E
0I
1H
1B
0J
07
0%
16
1'
#350000
0!
0#
0$
01
04
03
0<
0;
0:
1L
1D
1M
1@
0A
0C
1E
1I
0H
0B
1J
17
1%
06
0'
#360000
1!
1#
1$
11
14
13
1<
1;
1:
0L
0D
0M
0@
1A
1C
0E
0I
1H
1B
0J
07
0%
16
1'
#370000
0!
0#
0$
01
04
03
0<
0;
0:
1L
1D
1M
1@
0A
0C
1E
1I
0H
0B
1J
17
1%
06
0'
#380000
1!
1#
1$
11
14
13
1<
1;
1:
0L
0D
0M
0@
1A
1C
0E
0I
1H
1B
0J
07
0%
16
1'
#390000
0!
0#
0$
01
04
03
0<
0;
0:
1L
1D
1M
1@
0A
0C
1E
1I
0H
0B
1J
17
1%
06
0'
#400000
1!
1#
1$
11
14
13
1<
1;
1:
0L
0D
0M
0@
1A
1C
0E
0I
1H
1B
0J
07
0%
16
1'
#410000
0!
0#
0$
01
04
03
0<
0;
0:
1L
1D
1M
1@
0A
0C
1E
1I
0H
0B
1J
17
1%
06
0'
#420000
1!
1#
1$
11
14
13
1<
1;
1:
0L
0D
0M
0@
1A
1C
0E
0I
1H
1B
0J
07
0%
16
1'
#430000
0!
0#
0$
01
04
03
0<
0;
0:
1L
1D
1M
1@
0A
0C
1E
1I
0H
0B
1J
17
1%
06
0'
#440000
1!
1#
1$
11
14
13
1<
1;
1:
0L
0D
0M
0@
1A
1C
0E
0I
1H
1B
0J
07
0%
16
1'
#450000
0!
0#
0$
01
04
03
0<
0;
0:
1L
1D
1M
1@
0A
0C
1E
1I
0H
0B
1J
17
1%
06
0'
#460000
1!
1#
1$
11
14
13
1<
1;
1:
0L
0D
0M
0@
1A
1C
0E
0I
1H
1B
0J
07
0%
16
1'
#470000
0!
0#
0$
01
04
03
0<
0;
0:
1L
1D
1M
1@
0A
0C
1E
1I
0H
0B
1J
17
1%
06
0'
#480000
1!
1#
1$
11
14
13
1<
1;
1:
0L
0D
0M
0@
1A
1C
0E
0I
1H
1B
0J
07
0%
16
1'
#490000
0!
0#
0$
01
04
03
0<
0;
0:
1L
1D
1M
1@
0A
0C
1E
1I
0H
0B
1J
17
1%
06
0'
#500000
1!
1#
1$
11
14
13
1<
1;
1:
0L
0D
0M
0@
1A
1C
0E
0I
1H
1B
0J
07
0%
16
1'
#510000
0!
0#
0$
01
04
03
0<
0;
0:
1L
1D
1M
1@
0A
0C
1E
1I
0H
0B
1J
17
1%
06
0'
#520000
1!
1#
1$
11
14
13
1<
1;
1:
0L
0D
0M
0@
1A
1C
0E
0I
1H
1B
0J
07
0%
16
1'
#530000
0!
0#
0$
01
04
03
0<
0;
0:
1L
1D
1M
1@
0A
0C
1E
1I
0H
0B
1J
17
1%
06
0'
#540000
1!
1#
1$
11
14
13
1<
1;
1:
0L
0D
0M
0@
1A
1C
0E
0I
1H
1B
0J
07
0%
16
1'
#550000
0!
0#
0$
01
04
03
0<
0;
0:
1L
1D
1M
1@
0A
0C
1E
1I
0H
0B
1J
17
1%
06
0'
#560000
1!
1#
1$
11
14
13
1<
1;
1:
0L
0D
0M
0@
1A
1C
0E
0I
1H
1B
0J
07
0%
16
1'
#570000
0!
0#
0$
01
04
03
0<
0;
0:
1L
1D
1M
1@
0A
0C
1E
1I
0H
0B
1J
17
1%
06
0'
#580000
1!
1#
1$
11
14
13
1<
1;
1:
0L
0D
0M
0@
1A
1C
0E
0I
1H
1B
0J
07
0%
16
1'
#590000
0!
0#
0$
01
04
03
0<
0;
0:
1L
1D
1M
1@
0A
0C
1E
1I
0H
0B
1J
17
1%
06
0'
#600000
1!
1#
1$
11
14
13
1<
1;
1:
0L
0D
0M
0@
1A
1C
0E
0I
1H
1B
0J
07
0%
16
1'
#610000
0!
0#
0$
01
04
03
0<
0;
0:
1L
1D
1M
1@
0A
0C
1E
1I
0H
0B
1J
17
1%
06
0'
#620000
1!
1#
1$
11
14
13
1<
1;
1:
0L
0D
0M
0@
1A
1C
0E
0I
1H
1B
0J
07
0%
16
1'
#630000
0!
0#
0$
01
04
03
0<
0;
0:
1L
1D
1M
1@
0A
0C
1E
1I
0H
0B
1J
17
1%
06
0'
#640000
1!
1#
1$
11
14
13
1<
1;
1:
0L
0D
0M
0@
1A
1C
0E
0I
1H
1B
0J
07
0%
16
1'
#650000
0!
0#
0$
01
04
03
0<
0;
0:
1L
1D
1M
1@
0A
0C
1E
1I
0H
0B
1J
17
1%
06
0'
#660000
1!
1#
1$
11
14
13
1<
1;
1:
0L
0D
0M
0@
1A
1C
0E
0I
1H
1B
0J
07
0%
16
1'
#670000
0!
0#
0$
01
04
03
0<
0;
0:
1L
1D
1M
1@
0A
0C
1E
1I
0H
0B
1J
17
1%
06
0'
#680000
1!
1#
1$
11
14
13
1<
1;
1:
0L
0D
0M
0@
1A
1C
0E
0I
1H
1B
0J
07
0%
16
1'
#690000
0!
0#
0$
01
04
03
0<
0;
0:
1L
1D
1M
1@
0A
0C
1E
1I
0H
0B
1J
17
1%
06
0'
#700000
1!
1#
1$
11
14
13
1<
1;
1:
0L
0D
0M
0@
1A
1C
0E
0I
1H
1B
0J
07
0%
16
1'
#710000
0!
0#
0$
01
04
03
0<
0;
0:
1L
1D
1M
1@
0A
0C
1E
1I
0H
0B
1J
17
1%
06
0'
#720000
1!
1#
1$
11
14
13
1<
1;
1:
0L
0D
0M
0@
1A
1C
0E
0I
1H
1B
0J
07
0%
16
1'
#730000
0!
0#
0$
01
04
03
0<
0;
0:
1L
1D
1M
1@
0A
0C
1E
1I
0H
0B
1J
17
1%
06
0'
#740000
1!
1#
1$
11
14
13
1<
1;
1:
0L
0D
0M
0@
1A
1C
0E
0I
1H
1B
0J
07
0%
16
1'
#750000
0!
0#
0$
01
04
03
0<
0;
0:
1L
1D
1M
1@
0A
0C
1E
1I
0H
0B
1J
17
1%
06
0'
#760000
1!
1#
1$
11
14
13
1<
1;
1:
0L
0D
0M
0@
1A
1C
0E
0I
1H
1B
0J
07
0%
16
1'
#770000
0!
0#
0$
01
04
03
0<
0;
0:
1L
1D
1M
1@
0A
0C
1E
1I
0H
0B
1J
17
1%
06
0'
#780000
1!
1#
1$
11
14
13
1<
1;
1:
0L
0D
0M
0@
1A
1C
0E
0I
1H
1B
0J
07
0%
16
1'
#790000
0!
0#
0$
01
04
03
0<
0;
0:
1L
1D
1M
1@
0A
0C
1E
1I
0H
0B
1J
17
1%
06
0'
#800000
1!
1#
1$
11
14
13
1<
1;
1:
0L
0D
0M
0@
1A
1C
0E
0I
1H
1B
0J
07
0%
16
1'
#810000
0!
0#
0$
01
04
03
0<
0;
0:
1L
1D
1M
1@
0A
0C
1E
1I
0H
0B
1J
17
1%
06
0'
#820000
1!
1#
1$
11
14
13
1<
1;
1:
0L
0D
0M
0@
1A
1C
0E
0I
1H
1B
0J
07
0%
16
1'
#830000
0!
0#
0$
01
04
03
0<
0;
0:
1L
1D
1M
1@
0A
0C
1E
1I
0H
0B
1J
17
1%
06
0'
#840000
1!
1#
1$
11
14
13
1<
1;
1:
0L
0D
0M
0@
1A
1C
0E
0I
1H
1B
0J
07
0%
16
1'
#850000
0!
0#
0$
01
04
03
0<
0;
0:
1L
1D
1M
1@
0A
0C
1E
1I
0H
0B
1J
17
1%
06
0'
#860000
1!
1#
1$
11
14
13
1<
1;
1:
0L
0D
0M
0@
1A
1C
0E
0I
1H
1B
0J
07
0%
16
1'
#870000
0!
0#
0$
01
04
03
0<
0;
0:
1L
1D
1M
1@
0A
0C
1E
1I
0H
0B
1J
17
1%
06
0'
#880000
1!
1#
1$
11
14
13
1<
1;
1:
0L
0D
0M
0@
1A
1C
0E
0I
1H
1B
0J
07
0%
16
1'
#890000
0!
0#
0$
01
04
03
0<
0;
0:
1L
1D
1M
1@
0A
0C
1E
1I
0H
0B
1J
17
1%
06
0'
#900000
1!
1#
1$
11
14
13
1<
1;
1:
0L
0D
0M
0@
1A
1C
0E
0I
1H
1B
0J
07
0%
16
1'
#910000
0!
0#
0$
01
04
03
0<
0;
0:
1L
1D
1M
1@
0A
0C
1E
1I
0H
0B
1J
17
1%
06
0'
#920000
1!
1#
1$
11
14
13
1<
1;
1:
0L
0D
0M
0@
1A
1C
0E
0I
1H
1B
0J
07
0%
16
1'
#930000
0!
0#
0$
01
04
03
0<
0;
0:
1L
1D
1M
1@
0A
0C
1E
1I
0H
0B
1J
17
1%
06
0'
#940000
1!
1#
1$
11
14
13
1<
1;
1:
0L
0D
0M
0@
1A
1C
0E
0I
1H
1B
0J
07
0%
16
1'
#950000
0!
0#
0$
01
04
03
0<
0;
0:
1L
1D
1M
1@
0A
0C
1E
1I
0H
0B
1J
17
1%
06
0'
#960000
1!
1#
1$
11
14
13
1<
1;
1:
0L
0D
0M
0@
1A
1C
0E
0I
1H
1B
0J
07
0%
16
1'
#970000
0!
0#
0$
01
04
03
0<
0;
0:
1L
1D
1M
1@
0A
0C
1E
1I
0H
0B
1J
17
1%
06
0'
#980000
1!
1#
1$
11
14
13
1<
1;
1:
0L
0D
0M
0@
1A
1C
0E
0I
1H
1B
0J
07
0%
16
1'
#990000
0!
0#
0$
01
04
03
0<
0;
0:
1L
1D
1M
1@
0A
0C
1E
1I
0H
0B
1J
17
1%
06
0'
